<svg xmlns="http://www.w3.org/2000/svg" width="13.942" height="13.884" viewBox="0 0 13.942 13.884">
  <g id="first_page" transform="translate(-813.264 -1558.322)">
    <path id="arrow_down" d="M1407.064,368.176l5.528,5.528,5.527-5.528" transform="translate(1193.967 152.672) rotate(90)" fill="none" stroke="#6e6e6e" stroke-linecap="round" stroke-linejoin="round" stroke-width="2"/>
    <path id="arrow_down-2" data-name="arrow_down" d="M1407.064,368.176l5.528,5.528,5.527-5.528" transform="translate(1187.967 152.672) rotate(90)" fill="none" stroke="#6e6e6e" stroke-linecap="round" stroke-linejoin="round" stroke-width="2"/>
  </g>
</svg>
