{
  "doctors": [
    {
      "id": 1,
      "firstName": "Gregory",
      "lastName": "House",
      "title": "MD"
    },
    {
      "id": 2,
      "firstName": "Elizabeth",
      "lastName": "Blackwell",
      "title": "MD"
    },
    {
      "id": 3,
      "firstName": "Joseph",
      "lastName": "Lister",
      "title": "Surgeon"
    },
    {
      "id": 4,
      "firstName": "Eduard",
      "lastName": "Jenner",
      "title": "Immunologist"
    }
  ],
  "patients": [
    {
      "id": 1,
      "registeredDate": "2018-10-13T23:50:12Z",
      "firstName": "Mario",
      "lastName": "Rossi",
      "doctor": 1,
      "birthDate": "1992-10-13T23:50:12Z",
      "vatCode": 1232,
      "addresses": [
        {
          "type": "HOME",
          "email": "aaa@bb.com",
          "phone": "434343434",
          "street": "434343434",
          "city": "Rome",
          "zipcode": "00131",
          "country": "Italy"
        }
      ]
    },
    {
      "id": 2,
      "registeredDate": "2018-10-13T23:50:12Z",
      "birthDate": "1992-10-13T23:50:12Z",
      "vatCode": 1232,
      "firstName": "Francesco",
      "lastName": "Giuliani",
      "doctor": 3,
      "addresses": [
        {
          "type": "HOME",
          "email": "aaa@bb.com",
          "phone": "434343434",
          "street": "Via Casilina 72",
          "city": "Rome",
          "zipcode": "00186",
          "country": "Italy"
        },
        {
          "type": "WORK",
          "email": "aaa@bb.com",
          "phone": "434343434",
          "street": "Via Cassia 823",
          "city": "Rome",
          "zipcode": "00192",
          "country": "Italy"
        }
      ]
    },
    {
      "id": 3,
      "registeredDate": "2018-10-13T23:50:12Z",
      "birthDate": "1992-10-13T23:50:12Z",
      "vatCode": 1232,
      "firstName": "Elico",
      "lastName": "Maikenberg",
      "doctor": 4,
      "addresses": [
        {
          "type": "HOME",
          "email": "aaa@bb.com",
          "phone": "434343434",
          "street": "Piazza Risorgimento 44",
          "city": "Rome",
          "zipcode": "00195",
          "country": "Italy"
        }
      ]
    },
    {
      "id": 3,
      "registeredDate": "2018-10-13T23:50:12Z",
      "birthDate": "1992-10-13T23:50:12Z",
      "vatCode": 1232,
      "firstName": "Elico",
      "lastName": "Maikenberg",
      "doctor": 4,
      "addresses": [
        {
          "type": "HOME",
          "email": "aaa@bb.com",
          "phone": "434343434",
          "street": "Piazza Risorgimento 44",
          "city": "Rome",
          "zipcode": "00195",
          "country": "Italy"
        }
      ]
    },
    {
      "id": 4,
      "registeredDate": "2018-10-13T23:50:12Z",
      "birthDate": "1992-10-13T23:50:12Z",
      "vatCode": 1232,
      "firstName": "Elico",
      "lastName": "Maikenberg",
      "doctor": 4,
      "addresses": [
        {
          "type": "HOME",
          "email": "aaa@bb.com",
          "phone": "434343434",
          "street": "Piazza Risorgimento 44",
          "city": "Rome",
          "zipcode": "00195",
          "country": "Italy"
        }
      ]
    },
    {
      "id": 5,
      "registeredDate": "2018-10-13T23:50:12Z",
      "birthDate": "1992-10-13T23:50:12Z",
      "vatCode": 1232,
      "firstName": "Elico",
      "lastName": "Maikenberg",
      "doctor": 4,
      "addresses": [
        {
          "type": "HOME",
          "email": "aaa@bb.com",
          "phone": "434343434",
          "street": "Piazza Risorgimento 44",
          "city": "Rome",
          "zipcode": "00195",
          "country": "Italy"
        }
      ]
    },
    {
      "id": 6,
      "registeredDate": "2018-10-13T23:50:12Z",
      "birthDate": "1992-10-13T23:50:12Z",
      "vatCode": 1232,
      "firstName": "Elico",
      "lastName": "Maikenberg",
      "doctor": 4,
      "addresses": [
        {
          "type": "HOME",
          "email": "aaa@bb.com",
          "phone": "434343434",
          "street": "Piazza Risorgimento 44",
          "city": "Rome",
          "zipcode": "00195",
          "country": "Italy"
        }
      ]
    },
    {
      "id": 7,
      "registeredDate": "2018-10-13T23:50:12Z",
      "birthDate": "1992-10-13T23:50:12Z",
      "vatCode": 1232,
      "firstName": "Elico",
      "lastName": "Maikenberg",
      "doctor": 4,
      "addresses": [
        {
          "type": "HOME",
          "email": "aaa@bb.com",
          "phone": "434343434",
          "street": "Piazza Risorgimento 44",
          "city": "Rome",
          "zipcode": "00195",
          "country": "Italy"
        }
      ]
    },
    {
      "id": 8,
      "registeredDate": "2018-10-13T23:50:12Z",
      "birthDate": "1992-10-13T23:50:12Z",
      "vatCode": 1232,
      "firstName": "Elico",
      "lastName": "Maikenberg",
      "doctor": 4,
      "addresses": [
        {
          "type": "HOME",
          "email": "aaa@bb.com",
          "phone": "434343434",
          "street": "Piazza Risorgimento 44",
          "city": "Rome",
          "zipcode": "00195",
          "country": "Italy"
        }
      ]
    },
    {
      "id": 9,
      "registeredDate": "2018-10-13T23:50:12Z",
      "birthDate": "1992-10-13T23:50:12Z",
      "vatCode": 1232,
      "firstName": "Elico",
      "lastName": "Maikenberg",
      "doctor": 4,
      "addresses": [
        {
          "type": "HOME",
          "email": "aaa@bb.com",
          "phone": "434343434",
          "street": "Piazza Risorgimento 44",
          "city": "Rome",
          "zipcode": "00195",
          "country": "Italy"
        }
      ]
    },
    {
      "id": 10,
      "registeredDate": "2018-10-13T23:50:12Z",
      "birthDate": "1992-10-13T23:50:12Z",
      "vatCode": 1232,
      "firstName": "Elico",
      "lastName": "Maikenberg",
      "doctor": 4,
      "addresses": [
        {
          "type": "HOME",
          "email": "aaa@bb.com",
          "phone": "434343434",
          "street": "Piazza Risorgimento 44",
          "city": "Rome",
          "zipcode": "00195",
          "country": "Italy"
        }
      ]
    },
    {
      "id": 11,
      "registeredDate": "2018-10-13T23:50:12Z",
      "birthDate": "1992-10-13T23:50:12Z",
      "vatCode": 1232,
      "firstName": "Elico",
      "lastName": "Maikenberg",
      "doctor": 4,
      "addresses": [
        {
          "type": "HOME",
          "email": "aaa@bb.com",
          "phone": "434343434",
          "street": "Piazza Risorgimento 44",
          "city": "Rome",
          "zipcode": "00195",
          "country": "Italy"
        }
      ]
    },
    {
      "id": 12,
      "registeredDate": "2018-10-13T23:50:12Z",
      "birthDate": "1992-10-13T23:50:12Z",
      "vatCode": 1232,
      "firstName": "Elico",
      "lastName": "Maikenberg",
      "doctor": 4,
      "addresses": [
        {
          "type": "HOME",
          "email": "aaa@bb.com",
          "phone": "434343434",
          "street": "Piazza Risorgimento 44",
          "city": "Rome",
          "zipcode": "00195",
          "country": "Italy"
        }
      ]
    },
    {
      "id": 13,
      "registeredDate": "2018-10-13T23:50:12Z",
      "birthDate": "1992-10-13T23:50:12Z",
      "vatCode": 1232,
      "firstName": "Elico",
      "lastName": "Maikenberg",
      "doctor": 4,
      "addresses": [
        {
          "type": "HOME",
          "email": "aaa@bb.com",
          "phone": "434343434",
          "street": "Piazza Risorgimento 44",
          "city": "Rome",
          "zipcode": "00195",
          "country": "Italy"
        }
      ]
    },
    {
      "id": 14,
      "registeredDate": "2018-10-13T23:50:12Z",
      "birthDate": "1992-10-13T23:50:12Z",
      "vatCode": 1232,
      "firstName": "Elico",
      "lastName": "Maikenberg",
      "doctor": 4,
      "addresses": [
        {
          "type": "HOME",
          "email": "aaa@bb.com",
          "phone": "434343434",
          "street": "Piazza Risorgimento 44",
          "city": "Rome",
          "zipcode": "00195",
          "country": "Italy"
        }
      ]
    },
    {
      "id": 15,
      "registeredDate": "2018-10-13T23:50:12Z",
      "birthDate": "1992-10-13T23:50:12Z",
      "vatCode": 1232,
      "firstName": "Elico",
      "lastName": "Maikenberg",
      "doctor": 4,
      "addresses": [
        {
          "type": "HOME",
          "email": "aaa@bb.com",
          "phone": "434343434",
          "street": "Piazza Risorgimento 44",
          "city": "Rome",
          "zipcode": "00195",
          "country": "Italy"
        }
      ]
    },
    {
      "id": 16,
      "registeredDate": "2018-10-13T23:50:12Z",
      "birthDate": "1992-10-13T23:50:12Z",
      "vatCode": 1232,
      "firstName": "Elico",
      "lastName": "Maikenberg",
      "doctor": 4,
      "addresses": [
        {
          "type": "HOME",
          "email": "aaa@bb.com",
          "phone": "434343434",
          "street": "Piazza Risorgimento 44",
          "city": "Rome",
          "zipcode": "00195",
          "country": "Italy"
        }
      ]
    },
    {
      "id": 17,
      "registeredDate": "2018-10-13T23:50:12Z",
      "birthDate": "1992-10-13T23:50:12Z",
      "vatCode": 1232,
      "firstName": "Elico",
      "lastName": "Maikenberg",
      "doctor": 4,
      "addresses": [
        {
          "type": "HOME",
          "email": "aaa@bb.com",
          "phone": "434343434",
          "street": "Piazza Risorgimento 44",
          "city": "Rome",
          "zipcode": "00195",
          "country": "Italy"
        }
      ]
    },
    {
      "id": 18,
      "registeredDate": "2018-10-13T23:50:12Z",
      "birthDate": "1992-10-13T23:50:12Z",
      "vatCode": 1232,
      "firstName": "Elico",
      "lastName": "Maikenberg",
      "doctor": 4,
      "addresses": [
        {
          "type": "HOME",
          "email": "aaa@bb.com",
          "phone": "434343434",
          "street": "Piazza Risorgimento 44",
          "city": "Rome",
          "zipcode": "00195",
          "country": "Italy"
        }
      ]
    },
    {
      "id": 19,
      "registeredDate": "2018-10-13T23:50:12Z",
      "birthDate": "1992-10-13T23:50:12Z",
      "vatCode": 1232,
      "firstName": "Elico",
      "lastName": "Maikenberg",
      "doctor": 4,
      "addresses": [
        {
          "type": "HOME",
          "email": "aaa@bb.com",
          "phone": "434343434",
          "street": "Piazza Risorgimento 44",
          "city": "Rome",
          "zipcode": "00195",
          "country": "Italy"
        }
      ]
    },
    {
      "id": 20,
      "registeredDate": "2018-10-13T23:50:12Z",
      "birthDate": "1992-10-13T23:50:12Z",
      "vatCode": 1232,
      "firstName": "Elico",
      "lastName": "Maikenberg",
      "doctor": 4,
      "addresses": [
        {
          "type": "HOME",
          "email": "aaa@bb.com",
          "phone": "434343434",
          "street": "Piazza Risorgimento 44",
          "city": "Rome",
          "zipcode": "00195",
          "country": "Italy"
        }
      ]
    },
    {
      "id": 21,
      "registeredDate": "2018-10-13T23:50:12Z",
      "birthDate": "1992-10-13T23:50:12Z",
      "vatCode": 1232,
      "firstName": "Elico",
      "lastName": "Maikenberg",
      "doctor": 4,
      "addresses": [
        {
          "type": "HOME",
          "email": "aaa@bb.com",
          "phone": "434343434",
          "street": "Piazza Risorgimento 44",
          "city": "Rome",
          "zipcode": "00195",
          "country": "Italy"
        }
      ]
    },
    {
      "id": 22,
      "registeredDate": "2018-10-13T23:50:12Z",
      "birthDate": "1992-10-13T23:50:12Z",
      "vatCode": 1232,
      "firstName": "Elico",
      "lastName": "Maikenberg",
      "doctor": 4,
      "addresses": [
        {
          "type": "HOME",
          "email": "aaa@bb.com",
          "phone": "434343434",
          "street": "Piazza Risorgimento 44",
          "city": "Rome",
          "zipcode": "00195",
          "country": "Italy"
        }
      ]
    },
    {
      "id": 23,
      "registeredDate": "2018-10-13T23:50:12Z",
      "birthDate": "1992-10-13T23:50:12Z",
      "vatCode": 1232,
      "firstName": "Elico",
      "lastName": "Maikenberg",
      "doctor": 4,
      "addresses": [
        {
          "type": "HOME",
          "email": "aaa@bb.com",
          "phone": "434343434",
          "street": "Piazza Risorgimento 44",
          "city": "Rome",
          "zipcode": "00195",
          "country": "Italy"
        }
      ]
    },
    {
      "id": 24,
      "registeredDate": "2018-10-13T23:50:12Z",
      "birthDate": "1992-10-13T23:50:12Z",
      "vatCode": 1232,
      "firstName": "Elico",
      "lastName": "Maikenberg",
      "doctor": 4,
      "addresses": [
        {
          "type": "HOME",
          "email": "aaa@bb.com",
          "phone": "434343434",
          "street": "Piazza Risorgimento 44",
          "city": "Rome",
          "zipcode": "00195",
          "country": "Italy"
        }
      ]
    },
    {
      "id": 25,
      "registeredDate": "2018-10-13T23:50:12Z",
      "birthDate": "1992-10-13T23:50:12Z",
      "vatCode": 1232,
      "firstName": "Elico",
      "lastName": "Maikenberg",
      "doctor": 4,
      "addresses": [
        {
          "type": "HOME",
          "email": "aaa@bb.com",
          "phone": "434343434",
          "street": "Piazza Risorgimento 44",
          "city": "Rome",
          "zipcode": "00195",
          "country": "Italy"
        }
      ]
    },
    {
      "id": 26,
      "registeredDate": "2018-10-13T23:50:12Z",
      "birthDate": "1992-10-13T23:50:12Z",
      "vatCode": 1232,
      "firstName": "Elico",
      "lastName": "Maikenberg",
      "doctor": 4,
      "addresses": [
        {
          "type": "HOME",
          "email": "aaa@bb.com",
          "phone": "434343434",
          "street": "Piazza Risorgimento 44",
          "city": "Rome",
          "zipcode": "00195",
          "country": "Italy"
        }
      ]
    },
    {
      "id": 27,
      "registeredDate": "2018-10-13T23:50:12Z",
      "birthDate": "1992-10-13T23:50:12Z",
      "vatCode": 1232,
      "firstName": "Elico",
      "lastName": "Maikenberg",
      "doctor": 4,
      "addresses": [
        {
          "type": "HOME",
          "email": "aaa@bb.com",
          "phone": "434343434",
          "street": "Piazza Risorgimento 44",
          "city": "Rome",
          "zipcode": "00195",
          "country": "Italy"
        }
      ]
    },
    {
      "id": 28,
      "registeredDate": "2018-10-13T23:50:12Z",
      "birthDate": "1992-10-13T23:50:12Z",
      "vatCode": 1232,
      "firstName": "Elico",
      "lastName": "Maikenberg",
      "doctor": 4,
      "addresses": [
        {
          "type": "HOME",
          "email": "aaa@bb.com",
          "phone": "434343434",
          "street": "Piazza Risorgimento 44",
          "city": "Rome",
          "zipcode": "00195",
          "country": "Italy"
        }
      ]
    },
    {
      "id": 29,
      "registeredDate": "2018-10-13T23:50:12Z",
      "birthDate": "1992-10-13T23:50:12Z",
      "vatCode": 1232,
      "firstName": "Elico",
      "lastName": "Maikenberg",
      "doctor": 4,
      "addresses": [
        {
          "type": "HOME",
          "email": "aaa@bb.com",
          "phone": "434343434",
          "street": "Piazza Risorgimento 44",
          "city": "Rome",
          "zipcode": "00195",
          "country": "Italy"
        }
      ]
    },
    {
      "id": 30,
      "registeredDate": "2018-10-13T23:50:12Z",
      "birthDate": "1992-10-13T23:50:12Z",
      "vatCode": 1232,
      "firstName": "Elico",
      "lastName": "Maikenberg",
      "doctor": 4,
      "addresses": [
        {
          "type": "HOME",
          "email": "aaa@bb.com",
          "phone": "434343434",
          "street": "Piazza Risorgimento 44",
          "city": "Rome",
          "zipcode": "00195",
          "country": "Italy"
        }
      ]
    },
    {
      "id": 31,
      "registeredDate": "2018-10-13T23:50:12Z",
      "birthDate": "1992-10-13T23:50:12Z",
      "vatCode": 1232,
      "firstName": "Elico",
      "lastName": "Maikenberg",
      "doctor": 4,
      "addresses": [
        {
          "type": "HOME",
          "email": "aaa@bb.com",
          "phone": "434343434",
          "street": "Piazza Risorgimento 44",
          "city": "Rome",
          "zipcode": "00195",
          "country": "Italy"
        }
      ]
    },
    {
      "id": 32,
      "registeredDate": "2018-10-13T23:50:12Z",
      "birthDate": "1992-10-13T23:50:12Z",
      "vatCode": 1232,
      "firstName": "Elico",
      "lastName": "Maikenberg",
      "doctor": 4,
      "addresses": [
        {
          "type": "HOME",
          "email": "aaa@bb.com",
          "phone": "434343434",
          "street": "Piazza Risorgimento 44",
          "city": "Rome",
          "zipcode": "00195",
          "country": "Italy"
        }
      ]
    },
    {
      "id": 33,
      "registeredDate": "2018-10-13T23:50:12Z",
      "birthDate": "1992-10-13T23:50:12Z",
      "vatCode": 1232,
      "firstName": "Elico",
      "lastName": "Maikenberg",
      "doctor": 4,
      "addresses": [
        {
          "type": "HOME",
          "email": "aaa@bb.com",
          "phone": "434343434",
          "street": "Piazza Risorgimento 44",
          "city": "Rome",
          "zipcode": "00195",
          "country": "Italy"
        }
      ]
    },
    {
      "id": 34,
      "registeredDate": "2018-10-13T23:50:12Z",
      "birthDate": "1992-10-13T23:50:12Z",
      "vatCode": 1232,
      "firstName": "Elico",
      "lastName": "Maikenberg",
      "doctor": 4,
      "addresses": [
        {
          "type": "HOME",
          "email": "aaa@bb.com",
          "phone": "434343434",
          "street": "Piazza Risorgimento 44",
          "city": "Rome",
          "zipcode": "00195",
          "country": "Italy"
        }
      ]
    },
    {
      "id": 35,
      "registeredDate": "2018-10-13T23:50:12Z",
      "birthDate": "1992-10-13T23:50:12Z",
      "vatCode": 1232,
      "firstName": "Elico",
      "lastName": "Maikenberg",
      "doctor": 4,
      "addresses": [
        {
          "type": "HOME",
          "email": "aaa@bb.com",
          "phone": "434343434",
          "street": "Piazza Risorgimento 44",
          "city": "Rome",
          "zipcode": "00195",
          "country": "Italy"
        }
      ]
    },
    {
      "id": 36,
      "registeredDate": "2018-10-13T23:50:12Z",
      "birthDate": "1992-10-13T23:50:12Z",
      "vatCode": 1232,
      "firstName": "Elico",
      "lastName": "Maikenberg",
      "doctor": 4,
      "addresses": [
        {
          "type": "HOME",
          "email": "aaa@bb.com",
          "phone": "434343434",
          "street": "Piazza Risorgimento 44",
          "city": "Rome",
          "zipcode": "00195",
          "country": "Italy"
        }
      ]
    },
    {
      "id": 37,
      "registeredDate": "2018-10-13T23:50:12Z",
      "birthDate": "1992-10-13T23:50:12Z",
      "vatCode": 1232,
      "firstName": "Elico",
      "lastName": "Maikenberg",
      "doctor": 4,
      "addresses": [
        {
          "type": "HOME",
          "email": "aaa@bb.com",
          "phone": "434343434",
          "street": "Piazza Risorgimento 44",
          "city": "Rome",
          "zipcode": "00195",
          "country": "Italy"
        }
      ]
    },
    {
      "id": 38,
      "registeredDate": "2018-10-13T23:50:12Z",
      "birthDate": "1992-10-13T23:50:12Z",
      "vatCode": 1232,
      "firstName": "Elico",
      "lastName": "Maikenberg",
      "doctor": 4,
      "addresses": [
        {
          "type": "HOME",
          "email": "aaa@bb.com",
          "phone": "434343434",
          "street": "Piazza Risorgimento 44",
          "city": "Rome",
          "zipcode": "00195",
          "country": "Italy"
        }
      ]
    },
    {
      "id": 39,
      "registeredDate": "2018-10-13T23:50:12Z",
      "birthDate": "1992-10-13T23:50:12Z",
      "vatCode": 1232,
      "firstName": "Elico",
      "lastName": "Maikenberg",
      "doctor": 4,
      "addresses": [
        {
          "type": "HOME",
          "email": "aaa@bb.com",
          "phone": "434343434",
          "street": "Piazza Risorgimento 44",
          "city": "Rome",
          "zipcode": "00195",
          "country": "Italy"
        }
      ]
    },
    {
      "id": 40,
      "registeredDate": "2018-10-13T23:50:12Z",
      "birthDate": "1992-10-13T23:50:12Z",
      "vatCode": 1232,
      "firstName": "Elico",
      "lastName": "Maikenberg",
      "doctor": 4,
      "addresses": [
        {
          "type": "HOME",
          "email": "aaa@bb.com",
          "phone": "434343434",
          "street": "Piazza Risorgimento 44",
          "city": "Rome",
          "zipcode": "00195",
          "country": "Italy"
        }
      ]
    },
    {
      "id": 41,
      "registeredDate": "2018-10-13T23:50:12Z",
      "birthDate": "1992-10-13T23:50:12Z",
      "vatCode": 1232,
      "firstName": "Elico",
      "lastName": "Maikenberg",
      "doctor": 4,
      "addresses": [
        {
          "type": "HOME",
          "email": "aaa@bb.com",
          "phone": "434343434",
          "street": "Piazza Risorgimento 44",
          "city": "Rome",
          "zipcode": "00195",
          "country": "Italy"
        }
      ]
    },
    {
      "id": 42,
      "registeredDate": "2018-10-13T23:50:12Z",
      "birthDate": "1992-10-13T23:50:12Z",
      "vatCode": 1232,
      "firstName": "Elico",
      "lastName": "Maikenberg",
      "doctor": 4,
      "addresses": [
        {
          "type": "HOME",
          "email": "aaa@bb.com",
          "phone": "434343434",
          "street": "Piazza Risorgimento 44",
          "city": "Rome",
          "zipcode": "00195",
          "country": "Italy"
        }
      ]
    },
    {
      "id": 43,
      "registeredDate": "2018-10-13T23:50:12Z",
      "birthDate": "1992-10-13T23:50:12Z",
      "vatCode": 1232,
      "firstName": "Elico",
      "lastName": "Maikenberg",
      "doctor": 4,
      "addresses": [
        {
          "type": "HOME",
          "email": "aaa@bb.com",
          "phone": "434343434",
          "street": "Piazza Risorgimento 44",
          "city": "Rome",
          "zipcode": "00195",
          "country": "Italy"
        }
      ]
    },
    {
      "id": 44,
      "registeredDate": "2021-03-15T13:00:56.796Z",
      "firstName": "testtt",
      "lastName": "testtt",
      "doctor": 2,
      "birthDate": "2021-03-16T23:00:00.000Z",
      "vatCode": null,
      "addresses": [
        {
          "type": "Second Home",
          "email": "mladen.potrebic@gmail.com",
          "phone": "434343434",
          "street": "test",
          "city": "test",
          "zipcode": "3242",
          "country": "422"
        }
      ]
    }
  ]
}